{
  "results": [
    {
      "id": 1377752,
      "adult": false
    },
    {
      "id": 643736,
      "adult": false
    },
    {
      "id": 1377824,
      "adult": false
    },
    {
      "id": 979556,
      "adult": false
    },
    {
      "id": 797109,
      "adult": false
    },
    {
      "id": 1339172,
      "adult": false
    },
    {
      "id": 1219560,
      "adult": false
    },
    {
      "id": 1245399,
      "adult": false
    },
    {
      "id": 1369598,
      "adult": false
    },
    {
      "id": 1215026,
      "adult": false
    },
    {
      "id": 1370179,
      "adult": false
    },
    {
      "id": 1258213,
      "adult": false
    },
    {
      "id": 1267046,
      "adult": false
    },
    {
      "id": 1293885,
      "adult": false
    },
    {
      "id": 1294795,
      "adult": false
    },
    {
      "id": 1204228,
      "adult": false
    },
    {
      "id": 1313305,
      "adult": false
    },
    {
      "id": 1312687,
      "adult": false
    },
    {
      "id": 1337283,
      "adult": false
    },
    {
      "id": 1354499,
      "adult": false
    },
    {
      "id": 1355551,
      "adult": false
    },
    {
      "id": 1359054,
      "adult": false
    },
    {
      "id": 1360632,
      "adult": false
    },
    {
      "id": 1360933,
      "adult": false
    },
    {
      "id": 1361262,
      "adult": false
    },
    {
      "id": 1361935,
      "adult": false
    },
    {
      "id": 1363329,
      "adult": false
    },
    {
      "id": 1364352,
      "adult": false
    },
    {
      "id": 1364360,
      "adult": false
    },
    {
      "id": 1369246,
      "adult": false
    },
    {
      "id": 1371249,
      "adult": false
    },
    {
      "id": 1372824,
      "adult": false
    },
    {
      "id": 1375462,
      "adult": false
    },
    {
      "id": 1376646,
      "adult": false
    },
    {
      "id": 1237759,
      "adult": false
    },
    {
      "id": 1376748,
      "adult": false
    },
    {
      "id": 1214140,
      "adult": false
    },
    {
      "id": 1222248,
      "adult": false
    },
    {
      "id": 1232324,
      "adult": false
    },
    {
      "id": 1234786,
      "adult": false
    },
    {
      "id": 1249485,
      "adult": false
    },
    {
      "id": 1008633,
      "adult": false
    },
    {
      "id": 1283661,
      "adult": false
    },
    {
      "id": 1283793,
      "adult": false
    },
    {
      "id": 1315384,
      "adult": false
    },
    {
      "id": 1328520,
      "adult": false
    },
    {
      "id": 1339715,
      "adult": false
    },
    {
      "id": 1341284,
      "adult": false
    },
    {
      "id": 1355393,
      "adult": false
    },
    {
      "id": 1357356,
      "adult": false
    },
    {
      "id": 1361018,
      "adult": false
    },
    {
      "id": 1366031,
      "adult": false
    },
    {
      "id": 1367108,
      "adult": false
    },
    {
      "id": 1367145,
      "adult": false
    },
    {
      "id": 1370619,
      "adult": false
    },
    {
      "id": 1370626,
      "adult": false
    },
    {
      "id": 1371206,
      "adult": false
    },
    {
      "id": 1371683,
      "adult": false
    },
    {
      "id": 1372763,
      "adult": true
    },
    {
      "id": 1373457,
      "adult": false
    },
    {
      "id": 1373782,
      "adult": true
    },
    {
      "id": 1375052,
      "adult": false
    },
    {
      "id": 1281359,
      "adult": false
    },
    {
      "id": 1316568,
      "adult": false
    },
    {
      "id": 1377359,
      "adult": false
    },
    {
      "id": 1281813,
      "adult": false
    },
    {
      "id": 1377692,
      "adult": false
    },
    {
      "id": 1377758,
      "adult": false
    },
    {
      "id": 1369063,
      "adult": false
    },
    {
      "id": 1371943,
      "adult": false
    },
    {
      "id": 1372008,
      "adult": false
    },
    {
      "id": 1373520,
      "adult": false
    },
    {
      "id": 1373522,
      "adult": false
    },
    {
      "id": 1377421,
      "adult": false
    },
    {
      "id": 1377429,
      "adult": false
    },
    {
      "id": 1377437,
      "adult": false
    },
    {
      "id": 1377263,
      "adult": false
    },
    {
      "id": 1377628,
      "adult": false
    },
    {
      "id": 1377631,
      "adult": false
    },
    {
      "id": 1377323,
      "adult": false
    },
    {
      "id": 1377576,
      "adult": false
    },
    {
      "id": 978624,
      "adult": false
    },
    {
      "id": 1377320,
      "adult": false
    },
    {
      "id": 1374566,
      "adult": false
    },
    {
      "id": 1337561,
      "adult": false
    },
    {
      "id": 1377339,
      "adult": false
    },
    {
      "id": 1377562,
      "adult": false
    },
    {
      "id": 1377524,
      "adult": false
    },
    {
      "id": 1377641,
      "adult": false
    },
    {
      "id": 12636,
      "adult": false
    },
    {
      "id": 185354,
      "adult": false
    },
    {
      "id": 973628,
      "adult": false
    },
    {
      "id": 382594,
      "adult": false
    },
    {
      "id": 382549,
      "adult": false
    },
    {
      "id": 973952,
      "adult": false
    },
    {
      "id": 1377822,
      "adult": false
    },
    {
      "id": 1377825,
      "adult": false
    },
    {
      "id": 13802,
      "adult": false
    },
    {
      "id": 3007,
      "adult": false
    },
    {
      "id": 10159,
      "adult": false
    }
  ],
  "page": 1,
  "total_pages": 56,
  "total_results": 5563
}
