{
  "results": [
    {
      "id": 5024577,
      "adult": false
    },
    {
      "id": 1355642,
      "adult": false
    },
    {
      "id": 3456744,
      "adult": false
    },
    {
      "id": 224,
      "adult": false
    },
    {
      "id": 2589508,
      "adult": false
    },
    {
      "id": 5024578,
      "adult": true
    },
    {
      "id": 5024579,
      "adult": false
    },
    {
      "id": 5024580,
      "adult": true
    },
    {
      "id": 5024581,
      "adult": true
    },
    {
      "id": 5024582,
      "adult": false
    },
    {
      "id": 5024583,
      "adult": false
    },
    {
      "id": 5024584,
      "adult": false
    },
    {
      "id": 5024585,
      "adult": false
    },
    {
      "id": 5024586,
      "adult": false
    },
    {
      "id": 5024587,
      "adult": false
    },
    {
      "id": 5024588,
      "adult": false
    },
    {
      "id": 1186898,
      "adult": false
    },
    {
      "id": 29159,
      "adult": false
    },
    {
      "id": 5024589,
      "adult": false
    },
    {
      "id": 5024590,
      "adult": false
    },
    {
      "id": 5024591,
      "adult": false
    },
    {
      "id": 135126,
      "adult": false
    },
    {
      "id": 5024592,
      "adult": false
    },
    {
      "id": 5024593,
      "adult": false
    },
    {
      "id": 5024594,
      "adult": false
    },
    {
      "id": 5024595,
      "adult": false
    },
    {
      "id": 5024596,
      "adult": true
    },
    {
      "id": 5024597,
      "adult": true
    },
    {
      "id": 5024598,
      "adult": true
    },
    {
      "id": 5024599,
      "adult": false
    },
    {
      "id": 5019095,
      "adult": true
    },
    {
      "id": 5024600,
      "adult": false
    },
    {
      "id": 5024601,
      "adult": false
    },
    {
      "id": 5024602,
      "adult": false
    },
    {
      "id": 5024256,
      "adult": false
    },
    {
      "id": 5024603,
      "adult": false
    },
    {
      "id": 2212052,
      "adult": false
    },
    {
      "id": 4967734,
      "adult": false
    },
    {
      "id": 5024255,
      "adult": false
    },
    {
      "id": 1162616,
      "adult": false
    },
    {
      "id": 5023617,
      "adult": true
    },
    {
      "id": 5024604,
      "adult": false
    },
    {
      "id": 5024605,
      "adult": false
    },
    {
      "id": 5024606,
      "adult": true
    },
    {
      "id": 5024607,
      "adult": true
    },
    {
      "id": 5009755,
      "adult": null
    },
    {
      "id": 5024608,
      "adult": true
    },
    {
      "id": 5022664,
      "adult": false
    },
    {
      "id": 5024609,
      "adult": true
    },
    {
      "id": 5024610,
      "adult": false
    },
    {
      "id": 5024611,
      "adult": false
    },
    {
      "id": 5022667,
      "adult": false
    },
    {
      "id": 5024612,
      "adult": false
    },
    {
      "id": 5024613,
      "adult": false
    },
    {
      "id": 5024614,
      "adult": false
    },
    {
      "id": 5024615,
      "adult": false
    },
    {
      "id": 5024616,
      "adult": false
    },
    {
      "id": 3264156,
      "adult": null
    },
    {
      "id": 55762,
      "adult": false
    },
    {
      "id": 5024617,
      "adult": false
    },
    {
      "id": 1567578,
      "adult": false
    },
    {
      "id": 2421928,
      "adult": false
    },
    {
      "id": 1085608,
      "adult": false
    },
    {
      "id": 4171595,
      "adult": false
    },
    {
      "id": 1302140,
      "adult": false
    },
    {
      "id": 5024618,
      "adult": false
    },
    {
      "id": 5024619,
      "adult": false
    },
    {
      "id": 5024620,
      "adult": false
    },
    {
      "id": 5024621,
      "adult": false
    },
    {
      "id": 5024622,
      "adult": false
    },
    {
      "id": 5024623,
      "adult": false
    },
    {
      "id": 5024624,
      "adult": false
    },
    {
      "id": 5024625,
      "adult": false
    },
    {
      "id": 5024626,
      "adult": false
    },
    {
      "id": 5024627,
      "adult": false
    },
    {
      "id": 5022673,
      "adult": false
    },
    {
      "id": 5022666,
      "adult": false
    },
    {
      "id": 4910471,
      "adult": false
    },
    {
      "id": 5024628,
      "adult": false
    },
    {
      "id": 5024629,
      "adult": false
    },
    {
      "id": 5024630,
      "adult": false
    },
    {
      "id": 5024631,
      "adult": false
    },
    {
      "id": 5024632,
      "adult": false
    },
    {
      "id": 5024633,
      "adult": false
    },
    {
      "id": 4534118,
      "adult": false
    },
    {
      "id": 5024634,
      "adult": false
    },
    {
      "id": 5024635,
      "adult": false
    },
    {
      "id": 5024636,
      "adult": false
    },
    {
      "id": 5024637,
      "adult": false
    },
    {
      "id": 5024638,
      "adult": false
    },
    {
      "id": 5024639,
      "adult": false
    },
    {
      "id": 5024252,
      "adult": false
    },
    {
      "id": 5022671,
      "adult": false
    },
    {
      "id": 4534115,
      "adult": false
    },
    {
      "id": 31593,
      "adult": false
    },
    {
      "id": 5024640,
      "adult": false
    },
    {
      "id": 5024641,
      "adult": true
    },
    {
      "id": 4968362,
      "adult": null
    },
    {
      "id": 5024642,
      "adult": false
    },
    {
      "id": 5024259,
      "adult": false
    }
  ],
  "page": 1,
  "total_pages": 45,
  "total_results": 4440
}
