{
  "results": [
    {
      "id": 64070,
      "adult": false
    },
    {
      "id": 64432,
      "adult": false
    },
    {
      "id": 52,
      "adult": false
    },
    {
      "id": 248866,
      "adult": false
    },
    {
      "id": 72690,
      "adult": false
    },
    {
      "id": 247721,
      "adult": false
    },
    {
      "id": 13008,
      "adult": false
    },
    {
      "id": 261534,
      "adult": false
    },
    {
      "id": 121658,
      "adult": false
    },
    {
      "id": 275239,
      "adult": false
    },
    {
      "id": 66292,
      "adult": false
    },
    {
      "id": 38693,
      "adult": false
    },
    {
      "id": 222995,
      "adult": false
    },
    {
      "id": 65648,
      "adult": false
    },
    {
      "id": 80748,
      "adult": false
    },
    {
      "id": 70672,
      "adult": false
    },
    {
      "id": 263138,
      "adult": false
    },
    {
      "id": 274123,
      "adult": false
    },
    {
      "id": 274607,
      "adult": false
    },
    {
      "id": 275308,
      "adult": false
    },
    {
      "id": 239510,
      "adult": false
    },
    {
      "id": 235635,
      "adult": false
    },
    {
      "id": 262155,
      "adult": false
    },
    {
      "id": 201643,
      "adult": false
    },
    {
      "id": 273939,
      "adult": false
    },
    {
      "id": 261471,
      "adult": false
    },
    {
      "id": 32608,
      "adult": false
    },
    {
      "id": 254399,
      "adult": false
    },
    {
      "id": 209867,
      "adult": false
    },
    {
      "id": 37311,
      "adult": false
    },
    {
      "id": 106651,
      "adult": false
    },
    {
      "id": 204253,
      "adult": false
    },
    {
      "id": 235553,
      "adult": false
    },
    {
      "id": 206013,
      "adult": false
    },
    {
      "id": 61174,
      "adult": false
    },
    {
      "id": 92661,
      "adult": false
    },
    {
      "id": 76075,
      "adult": false
    },
    {
      "id": 271120,
      "adult": false
    },
    {
      "id": 236534,
      "adult": false
    },
    {
      "id": 90677,
      "adult": false
    },
    {
      "id": 76560,
      "adult": false
    },
    {
      "id": 245312,
      "adult": false
    },
    {
      "id": 244839,
      "adult": false
    },
    {
      "id": 80300,
      "adult": false
    },
    {
      "id": 194606,
      "adult": false
    },
    {
      "id": 226688,
      "adult": false
    },
    {
      "id": 118136,
      "adult": false
    },
    {
      "id": 275318,
      "adult": false
    },
    {
      "id": 205947,
      "adult": false
    },
    {
      "id": 237020,
      "adult": false
    },
    {
      "id": 90216,
      "adult": false
    },
    {
      "id": 229902,
      "adult": false
    },
    {
      "id": 119731,
      "adult": false
    },
    {
      "id": 138501,
      "adult": false
    },
    {
      "id": 129037,
      "adult": false
    },
    {
      "id": 123283,
      "adult": false
    },
    {
      "id": 45857,
      "adult": false
    },
    {
      "id": 135934,
      "adult": false
    },
    {
      "id": 233515,
      "adult": false
    },
    {
      "id": 117736,
      "adult": false
    },
    {
      "id": 158250,
      "adult": false
    },
    {
      "id": 157315,
      "adult": false
    },
    {
      "id": 46671,
      "adult": false
    },
    {
      "id": 62286,
      "adult": false
    },
    {
      "id": 40639,
      "adult": false
    },
    {
      "id": 65930,
      "adult": false
    },
    {
      "id": 235673,
      "adult": false
    },
    {
      "id": 69070,
      "adult": false
    },
    {
      "id": 225886,
      "adult": false
    },
    {
      "id": 104716,
      "adult": false
    },
    {
      "id": 42953,
      "adult": false
    },
    {
      "id": 216467,
      "adult": false
    },
    {
      "id": 2661,
      "adult": false
    },
    {
      "id": 273049,
      "adult": false
    },
    {
      "id": 72548,
      "adult": false
    },
    {
      "id": 14252,
      "adult": false
    },
    {
      "id": 275319,
      "adult": false
    },
    {
      "id": 87130,
      "adult": false
    },
    {
      "id": 243444,
      "adult": false
    },
    {
      "id": 74682,
      "adult": false
    },
    {
      "id": 31997,
      "adult": false
    },
    {
      "id": 240411,
      "adult": false
    },
    {
      "id": 275320,
      "adult": false
    },
    {
      "id": 234667,
      "adult": false
    },
    {
      "id": 12971,
      "adult": false
    },
    {
      "id": 131835,
      "adult": false
    },
    {
      "id": 69850,
      "adult": false
    },
    {
      "id": 63946,
      "adult": false
    },
    {
      "id": 229676,
      "adult": false
    },
    {
      "id": 271249,
      "adult": false
    },
    {
      "id": 9821,
      "adult": false
    },
    {
      "id": 987,
      "adult": false
    },
    {
      "id": 207347,
      "adult": false
    },
    {
      "id": 253485,
      "adult": false
    },
    {
      "id": 215429,
      "adult": false
    },
    {
      "id": 85100,
      "adult": true
    },
    {
      "id": 275321,
      "adult": false
    },
    {
      "id": 8019,
      "adult": false
    },
    {
      "id": 117177,
      "adult": false
    },
    {
      "id": 239389,
      "adult": false
    }
  ],
  "page": 1,
  "total_pages": 18,
  "total_results": 1749
}
